\relax 
\catcode `"\active 
\select@language{ngerman}
\@writefile{toc}{\select@language{ngerman}}
\@writefile{lof}{\select@language{ngerman}}
\@writefile{lot}{\select@language{ngerman}}
\@writefile{toc}{\contentsline {section}{\numberline {1}Allgemein}{1}}
\@writefile{toc}{\contentsline {section}{\numberline {2}Crazy Car Platine\IeC {\textendash }Einf\IeC {\"u}hrung}{2}}
\@writefile{toc}{\contentsline {subsection}{\numberline {2.1}Das Crazy Car}{2}}
\@writefile{toc}{\contentsline {subsubsection}{\numberline {2.1.1}Der Mikrocontroller}{2}}
\@writefile{toc}{\contentsline {subsection}{\numberline {2.2}Abbildung im Code Composer}{2}}
\@writefile{lof}{\contentsline {figure}{\numberline {1}{\ignorespaces LAyerstruktur Quelle: Labor-Briefing\relax }}{2}}
\@writefile{toc}{\contentsline {subsubsection}{\numberline {2.2.1}Hardwarelayer}{3}}
\@writefile{toc}{\contentsline {subsubsection}{\numberline {2.2.2}Driver}{3}}
\@writefile{toc}{\contentsline {subsubsection}{\numberline {2.2.3}Application}{3}}
\@writefile{lof}{\contentsline {figure}{\numberline {2}{\ignorespaces Struktur im Code Composer\relax }}{3}}
\@writefile{toc}{\contentsline {section}{\numberline {3}IO-Port Konfiguration}{4}}
\@writefile{toc}{\contentsline {subsection}{\numberline {3.1}Pineigenschaften MSP430}{4}}
\@writefile{toc}{\contentsline {subsection}{\numberline {3.2}IO Konfiguration im Code Composer}{4}}
\newlabel{ioconf}{{3.2}{4}}
\@writefile{toc}{\contentsline {subsubsection}{\numberline {3.2.1}Maskierungsarten}{4}}
\@writefile{lol}{\contentsline {lstlisting}{CFiles/lab1/logic\textendash operators.c}{4}}
\@writefile{toc}{\contentsline {subsubsection}{\numberline {3.2.2}Einf\IeC {\"u}hrendes Beispiel einer IO-Port Konfiguration}{5}}
\@writefile{lof}{\contentsline {figure}{\numberline {3}{\ignorespaces Port 1 Quelle: Crazy Car Schaltplan\relax }}{5}}
\@writefile{lof}{\contentsline {figure}{\numberline {4}{\ignorespaces PXDIR Quelle: MSP430 FamilyGUIDE\relax }}{5}}
\@writefile{toc}{\contentsline {subsubsection}{\numberline {3.2.3}I-O Konfiguration f\IeC {\"u}r das crazy car}{6}}
\@writefile{lol}{\contentsline {lstlisting}{CFiles/schema1.c}{6}}
\@writefile{lol}{\contentsline {lstlisting}{CFiles/lab1/hal\textunderscore gpio.h}{6}}
\@writefile{lol}{\contentsline {lstlisting}{CFiles/lab1/hal\textunderscore gpio.c}{7}}
\@writefile{toc}{\contentsline {section}{\numberline {4}Rechendauer Performance Test}{9}}
\@writefile{toc}{\contentsline {subsection}{\numberline {4.1}Code}{9}}
\@writefile{lol}{\contentsline {lstlisting}{CFiles/lab2/performance.c}{9}}
\@writefile{toc}{\contentsline {subsection}{\numberline {4.2}Messung am Oszilloskop}{9}}
\@writefile{lof}{\contentsline {figure}{\numberline {5}{\ignorespaces Darstellung der Ben\IeC {\"o}tigten Zeit f\IeC {\"u}r die Int Berechnung\relax }}{10}}
\@writefile{lof}{\contentsline {figure}{\numberline {6}{\ignorespaces Darstellung der Ben\IeC {\"o}tigten Zeit f\IeC {\"u}r die Gleitkomma Berechnung\relax }}{10}}
\@writefile{toc}{\contentsline {section}{\numberline {5}Allgemeine Interrupt Steuerung}{11}}
\@writefile{toc}{\contentsline {subsection}{\numberline {5.1}Hintergrundleuchten}{11}}
\@writefile{lol}{\contentsline {lstlisting}{CFiles/lab2/buttonstruct.c}{11}}
\@writefile{lol}{\contentsline {lstlisting}{CFiles/lab2/interrupt.c}{12}}
\@writefile{lol}{\contentsline {lstlisting}{CFiles/lab2/polling\textendash main.c}{13}}
\@writefile{toc}{\contentsline {subsection}{\numberline {5.2}Kontaktprellen}{13}}
\@writefile{toc}{\contentsline {subsection}{\numberline {5.3} Interrupt den zeitlichen Ablauf}{13}}
\@writefile{toc}{\contentsline {subsection}{\numberline {5.4}Was ist Interrupt Nesting}{13}}
\@writefile{toc}{\contentsline {subsection}{\numberline {5.5}Welche Funktion besitzt das GIE Bit}{13}}
\@writefile{toc}{\contentsline {section}{\numberline {6}Unified Clock System}{14}}
\newlabel{lu3_ucs}{{6}{14}}
\@writefile{toc}{\contentsline {subsection}{\numberline {6.1}Konfiguration der Sub Master Clock}{14}}
\@writefile{lof}{\contentsline {figure}{\numberline {7}{\ignorespaces Port 7, Quelle: Crazy Car Schaltplan\relax }}{14}}
\@writefile{lof}{\contentsline {figure}{\numberline {8}{\ignorespaces Port P7 (P7.2 and P7.3) Pin Funktionen, Quelle: MSP430 Datanblatt, table 6-56\relax }}{14}}
\@writefile{lol}{\contentsline {lstlisting}{CFiles/lab3/p7.c}{15}}
\@writefile{lol}{\contentsline {lstlisting}{CFiles/lab3/hal\textunderscore ucs.h}{15}}
\@writefile{lol}{\contentsline {lstlisting}{CFiles/lab3/hal\textunderscore ucs.c}{15}}
\@writefile{toc}{\contentsline {subsubsection}{\numberline {6.1.1}Messen der Submasterclock mit dem Oszilloskop}{16}}
\@writefile{lof}{\contentsline {figure}{\numberline {9}{\ignorespaces Submasterclock mit f=2,5MHz\relax }}{16}}
\@writefile{toc}{\contentsline {section}{\numberline {7}Timer}{17}}
\@writefile{toc}{\contentsline {subsection}{\numberline {7.1}Unterschied zwischen Timer A und Timer B}{17}}
\@writefile{toc}{\contentsline {subsection}{\numberline {7.2}Crazy Car Display mit Hilfe von Timer B blinken lassen}{17}}
\@writefile{toc}{\contentsline {subsubsection}{\numberline {7.2.1}Exemplarisches \IeC {\"A}ndern einer Registereigenschaft}{17}}
\@writefile{lof}{\contentsline {figure}{\numberline {10}{\ignorespaces TBxR Register, Quelle: MSP430 Family Guide, Fig 18-21\relax }}{17}}
\@writefile{lof}{\contentsline {figure}{\numberline {11}{\ignorespaces TBxR Funktion, Quelle: MSP430 Family Guide, Table 18-11\relax }}{17}}
\@writefile{lof}{\contentsline {figure}{\numberline {12}{\ignorespaces TBIDEX\_\_3 entspricht laut dem Kommentar einer /3 Division. Quelle: msp430f5335.h\relax }}{18}}
\@writefile{toc}{\contentsline {subsubsection}{\numberline {7.2.2}Z\IeC {\"a}hlfunktion}{18}}
\newlabel{lab2_zaehl}{{7.2.2}{18}}
\@writefile{lof}{\contentsline {figure}{\numberline {13}{\ignorespaces Timer B z\IeC {\"a}hlt bis zum Wert TBxCL0, der dem Register TB0CCR0 entspricht. VORSICHT: TB0CCR0 darf den Wert $2^8$ nicht \IeC {\"u}berschreiten! Quelle: MSP430 Family Guide, Figure 18-2\relax }}{18}}
\newlabel{lab3eq1}{{1}{18}}
\@writefile{toc}{\contentsline {subsubsection}{\numberline {7.2.3}Umsetzung im Codecomposer}{18}}
\@writefile{lol}{\contentsline {lstlisting}{CFiles/lab3/hal\textunderscore timerB0.h}{19}}
\@writefile{lol}{\contentsline {lstlisting}{CFiles/lab3/hal\textunderscore timerB0.c}{19}}
\@writefile{toc}{\contentsline {subsubsection}{\numberline {7.2.4}Messung der Blinkzeit mit dem Oszilloskop}{20}}
\@writefile{lof}{\contentsline {figure}{\numberline {14}{\ignorespaces Display blinkt mit f=2Hz. Also zwei Mal in der Sekunde.\relax }}{20}}
\@writefile{toc}{\contentsline {section}{\numberline {8}Erzeugung eines PWM Signals mit TimerA}{21}}
\@writefile{toc}{\contentsline {subsection}{\numberline {8.1}Timer Up Mode am Timer A}{21}}
\@writefile{lof}{\contentsline {figure}{\numberline {15}{\ignorespaces Timer A Up-Mode, Quelle: MSP430 Family Guide, Fig 17-12\relax }}{21}}
\@writefile{toc}{\contentsline {section}{\numberline {9}Ansteuerung des Lenkservos am Crazy Car}{22}}
\@writefile{lof}{\contentsline {figure}{\numberline {16}{\ignorespaces Die Stellung des Servomotors ist abh\IeC {\"a}ngig vom Duty Cycle, Quelle: EC Laborpr\IeC {\"a}sentation, 4. PWM \IeC {\textendash } Ansteuerung der Aktorik\relax }}{22}}
\@writefile{lol}{\contentsline {lstlisting}{CFiles/lab4/hal\textunderscore timerA1.h}{22}}
\@writefile{lol}{\contentsline {lstlisting}{CFiles/lab4/hal\textunderscore timerA1.c}{22}}
\@writefile{lof}{\contentsline {figure}{\numberline {17}{\ignorespaces Lenkung\relax }}{23}}
\@writefile{lol}{\contentsline {lstlisting}{CFiles/lab4/driver\textunderscore aktorik.h}{23}}
\@writefile{lol}{\contentsline {lstlisting}{CFiles/lab4/driver\textunderscore aktorik.c}{24}}
\@writefile{toc}{\contentsline {section}{\numberline {10}SPI}{26}}
\@writefile{lof}{\contentsline {figure}{\numberline {18}{\ignorespaces Anschluss vom LCD Display an den MSP430, Quelle: Crazy Car Datenblatt\relax }}{26}}
\@writefile{lol}{\contentsline {lstlisting}{CFiles/lab5/hal\textunderscore gpio.c}{26}}
\@writefile{toc}{\contentsline {subsubsection}{\numberline {10.0.1}Initialisieren der UCB1}{27}}
\@writefile{lol}{\contentsline {lstlisting}{CFiles/lab5/usciB1\textendash init.c}{27}}
\@writefile{toc}{\contentsline {subsubsection}{\numberline {10.0.2}\IeC {\"U}bertragung}{28}}
\@writefile{lol}{\contentsline {lstlisting}{CFiles/lab5/hal\textunderscore usciB1.h}{28}}
\@writefile{lol}{\contentsline {lstlisting}{CFiles/lab5/hal\textunderscore usciB1\textendash send.c}{28}}
\@writefile{toc}{\contentsline {subsubsection}{\numberline {10.0.3}Senden von Main}{30}}
\@writefile{lol}{\contentsline {lstlisting}{CFiles/lab5/main.c}{30}}
\@writefile{toc}{\contentsline {subsubsection}{\numberline {10.0.4}Messung}{30}}
\@writefile{lof}{\contentsline {figure}{\numberline {19}{\ignorespaces gelb: MOSI, gr\IeC {\"u}n: CLK, blau: CS\relax }}{31}}
\@writefile{lof}{\contentsline {figure}{\numberline {20}{\ignorespaces gelb: MOSI, gr\IeC {\"u}n: CLK, blau: CS\relax }}{31}}
\@writefile{toc}{\contentsline {section}{\numberline {11}Richtigkeitsbeglaubigung}{32}}
