\relax 
\providecommand\zref@newlabel[2]{}
\catcode `"\active 
\select@language{ngerman}
\@writefile{toc}{\select@language{ngerman}}
\@writefile{lof}{\select@language{ngerman}}
\@writefile{lot}{\select@language{ngerman}}
\@writefile{toc}{\contentsline {section}{\numberline {1}Vorwort}{1}}
\@writefile{lof}{\contentsline {figure}{\numberline {1}{\ignorespaces Vorgegebene f\IeC {\"u}r die zu absolvierende Strecke. Quelle: Labor-Briefing\relax }}{1}}
\newlabel{t0:pic:black}{{1}{1}}
\@writefile{toc}{\contentsline {section}{\numberline {2}Crazy Car Platine\IeC {\textendash }Einf\IeC {\"u}hrung}{2}}
\@writefile{toc}{\contentsline {subsection}{\numberline {2.1}Das Crazy Car}{2}}
\@writefile{lof}{\contentsline {figure}{\numberline {2}{\ignorespaces Das von uns eingesetzte Crazycar mit den Abstandssensoren. Das Chassis wurde von uns entsprechend unserem Teamnamen ikonisch geschm\IeC {\"u}ckt.\relax }}{2}}
\@writefile{toc}{\contentsline {subsubsection}{\numberline {2.1.1}Der Mikrocontroller}{2}}
\@writefile{toc}{\contentsline {subsection}{\numberline {2.2}Software}{2}}
\@writefile{toc}{\contentsline {subsubsection}{\numberline {2.2.1}Abbildung im Code Composer}{3}}
\@writefile{lof}{\contentsline {figure}{\numberline {3}{\ignorespaces Layerstruktur des Softwareaufbaus. Quelle: Labor-Briefing\relax }}{3}}
\@writefile{toc}{\contentsline {section}{\numberline {3}IO-Port Konfiguration}{4}}
\newlabel{lab1:sec:black}{{3}{4}}
\@writefile{toc}{\contentsline {subsection}{\numberline {3.1}Pineigenschaften MSP430}{4}}
\@writefile{lot}{\contentsline {table}{\numberline {1}{\ignorespaces \IeC {\"U}bersicht g\IeC {\"a}ngiger Porteigenschaften\relax }}{4}}
\providecommand*\caption@xref[2]{\@setref\relax\@undefined{#1}}
\newlabel{lab1:tab:black}{{1}{4}}
\@writefile{toc}{\contentsline {subsection}{\numberline {3.2}IO Konfiguration im Code Composer}{4}}
\newlabel{ioconf}{{3.2}{4}}
\newlabel{t1:lst:black}{{1}{5}}
\@writefile{lol}{\contentsline {lstlisting}{\numberline {1}\IeC {\"U}ber das Einbinden der msp430.h kann das Direction Register von Port 1 \IeC {\"u}ber P1DIR angesprochen werden (Tabelle \ref  {lab1:tab:black}).}{5}}
\@writefile{lol}{\contentsline {lstlisting}{\numberline {2}Die Funktion dieses Codes ist \IeC {\"a}quivalent zu Code \ref  {t1:lst:black}.}{5}}
\@writefile{toc}{\contentsline {subsubsection}{\numberline {3.2.1}Maskierung}{5}}
\newlabel{t1:lst:brown}{{3.2.1}{6}}
\@writefile{lol}{\contentsline {lstlisting}{CFiles/lab1/logic\textendash operators.c}{6}}
\@writefile{toc}{\contentsline {subsubsection}{\numberline {3.2.2}I-O Konfiguration f\IeC {\"u}r das crazy car}{6}}
\@writefile{lol}{\contentsline {lstlisting}{CFiles/schema1.c}{6}}
\@writefile{toc}{\contentsline {section}{\numberline {4}Rechendauer Performance Test}{7}}
\@writefile{toc}{\contentsline {subsection}{\numberline {4.1}Code}{7}}
\newlabel{lab2:list:black}{{3}{7}}
\@writefile{lol}{\contentsline {lstlisting}{\numberline {3}Anhand dieses Codes wurde mithilfe des Oszilloskops ein Perforamcetest durchgef\IeC {\"u}hrt}{7}}
\@writefile{toc}{\contentsline {subsection}{\numberline {4.2}Messung am Oszilloskop}{8}}
\@writefile{toc}{\contentsline {subsubsection}{\numberline {4.2.1}Screens}{8}}
\@writefile{lof}{\contentsline {figure}{\numberline {4}{\ignorespaces Darstellung der Ben\IeC {\"o}tigten Zeit f\IeC {\"u}r die Int Berechnung, 39$\mu $s\relax }}{8}}
\@writefile{lof}{\contentsline {figure}{\numberline {5}{\ignorespaces Darstellung der Ben\IeC {\"o}tigten Zeit f\IeC {\"u}r die Gleitkomma Berechnung , 350$\mu $s\relax }}{9}}
\@writefile{toc}{\contentsline {subsubsection}{\numberline {4.2.2}Auswertung}{9}}
\@writefile{toc}{\contentsline {section}{\numberline {5}Allgemeine Interrupt Steuerung}{10}}
\@writefile{toc}{\contentsline {subsection}{\numberline {5.1}Einstellungen f\IeC {\"u}r die Interruptfunktion}{10}}
\@writefile{toc}{\contentsline {subsubsection}{\numberline {5.1.1}\#pragma}{10}}
\@writefile{toc}{\contentsline {subsection}{\numberline {5.2}Interrupt Vector Table}{10}}
\@writefile{toc}{\contentsline {subsection}{\numberline {5.3}Beispiel: Hintergrundleuchten}{11}}
\@writefile{lol}{\contentsline {lstlisting}{\numberline {4}Die hal\_gpio wurde um ein struct erweitert in dem \IeC {\"u}ber die Variablen button und active die Zust\IeC {\"a}nde der Buttons gespeichert werden k\IeC {\"o}nnen.}{11}}
\@writefile{toc}{\contentsline {subsubsection}{\numberline {5.3.1}Registereinstellungen f\IeC {\"u}r die Taster}{11}}
\@writefile{lof}{\contentsline {figure}{\numberline {6}{\ignorespaces Der Pullupwiderstand $R_p$ kann am MSP430 \IeC {\"u}ber das Register PxREN aktiviert werden.\relax }}{11}}
\@writefile{toc}{\contentsline {subsubsection}{\numberline {5.3.2}Code}{12}}
\newlabel{lab2:code:brown}{{5}{12}}
\@writefile{lol}{\contentsline {lstlisting}{\numberline {5}Umsetzung des Interruptaufrufs durch die Buttons. Der Code ist im nachfolgenden genauer erkl\IeC {\"a}rt.}{12}}
\@writefile{lol}{\contentsline {lstlisting}{\numberline {6}\IeC {\"U}ber polling wurde aus der main das Display entsprechend den Tastendrucken beleuchtet. Dies diente lediglich zur \IeC {\"U}berpr\IeC {\"u}fung der Funktion.}{13}}
\@writefile{toc}{\contentsline {subsection}{\numberline {5.4}Interrupt Flag Register}{13}}
\newlabel{lab2:sec:red}{{5.4}{13}}
\@writefile{toc}{\contentsline {subsection}{\numberline {5.5}Zus\IeC {\"a}tzlich bearbeitete Themen im Zuge dieses Abschnitts}{13}}
\@writefile{toc}{\contentsline {subsubsection}{\numberline {5.5.1}Kontaktprellen}{13}}
\@writefile{toc}{\contentsline {subsubsection}{\numberline {5.5.2}Interrupts und der zeitliche Programmblauf}{14}}
\newlabel{lab2:sec:yellow}{{5.5.2}{14}}
\@writefile{toc}{\contentsline {subsubsection}{\numberline {5.5.3}Interrupt Nesting}{14}}
\@writefile{toc}{\contentsline {section}{\numberline {6}Unified Clock System}{15}}
\newlabel{lu3_ucs}{{6}{15}}
\@writefile{toc}{\contentsline {subsection}{\numberline {6.1}Konfiguration der Master- und Submaster Clock}{15}}
\@writefile{lof}{\contentsline {figure}{\numberline {7}{\ignorespaces Port 7, Quelle: Crazy Car Schaltplan\relax }}{15}}
\@writefile{lof}{\contentsline {figure}{\numberline {8}{\ignorespaces Aus dem Datenblatt ist erkennbar, dass XT2BYPASS auf 0 und das zweite BIT von P7SEL auf 1 gesetzt werden muss. Port P7 (P7.2 and P7.3) Pin Funktionen, Quelle: MSP430 Datanblatt, table 6-56\relax }}{16}}
\@writefile{lol}{\contentsline {lstlisting}{CFiles/lab3/p7.c}{16}}
\@writefile{toc}{\contentsline {subsubsection}{\numberline {6.1.1}\IeC {\"U}bersicht \IeC {\"u}ber die Frequenzen}{16}}
\@writefile{toc}{\contentsline {subsubsection}{\numberline {6.1.2}Einstellen der Clock}{17}}
\@writefile{toc}{\contentsline {subsubsection}{\numberline {6.1.3}Messen der Submasterclock mit dem Oszilloskop}{17}}
\@writefile{lof}{\contentsline {figure}{\numberline {9}{\ignorespaces Die Messung ergab die gew\IeC {\"u}nschte Submasterclock mit f=2,5MHz\relax }}{17}}
\@writefile{toc}{\contentsline {section}{\numberline {7}Timer}{18}}
\@writefile{toc}{\contentsline {subsection}{\numberline {7.1}Timer A}{18}}
\newlabel{lab3:sec:black}{{7.1}{18}}
\@writefile{lof}{\contentsline {figure}{\numberline {10}{\ignorespaces Ausschnitt aus dem Familyguide. Der Timer Block Z\IeC {\"a}hlt hinauf, in den Capture Compare Registern erfolgt der Vergleich mit einem CCR\relax }}{18}}
\@writefile{toc}{\contentsline {subsection}{\numberline {7.2}Timer B}{18}}
\@writefile{toc}{\contentsline {subsection}{\numberline {7.3}Unterschied zwischen Timer A und Timer B}{19}}
\newlabel{lab3:sec:brown}{{7.3}{19}}
\@writefile{toc}{\contentsline {subsection}{\numberline {7.4}Capture- und Comparemode}{19}}
\@writefile{toc}{\contentsline {subsubsection}{\numberline {7.4.1}Compare Mode}{19}}
\newlabel{lab3eq1}{{1}{19}}
\@writefile{toc}{\contentsline {subsubsection}{\numberline {7.4.2}Capture mode}{20}}
\@writefile{toc}{\contentsline {subsection}{\numberline {7.5}Z\IeC {\"a}hlarten}{20}}
\@writefile{toc}{\contentsline {subsubsection}{\numberline {7.5.1}Up-Mode}{20}}
\newlabel{lab3:sec:orange}{{7.5.1}{20}}
\@writefile{lof}{\contentsline {figure}{\numberline {11}{\ignorespaces Timer B z\IeC {\"a}hlt bis zum Wert TBxCL0, der dem Register TB0CCR0 entspricht. VORSICHT: TB0CCR0 darf den Wert $2^8$ nicht \IeC {\"u}berschreiten! Quelle: MSP430 Family Guide, Figure 18-2\relax }}{20}}
\@writefile{toc}{\contentsline {subsection}{\numberline {7.6}Beispiel: Display durch Timer B blinken lassen}{21}}
\@writefile{toc}{\contentsline {subsubsection}{\numberline {7.6.1}Berechnung}{21}}
\@writefile{toc}{\contentsline {subsubsection}{\numberline {7.6.2}Umsetzung im Codecomposer}{22}}
\@writefile{lol}{\contentsline {lstlisting}{CFiles/lab3/hal\textunderscore timerB0.h}{22}}
\@writefile{lol}{\contentsline {lstlisting}{CFiles/lab3/hal\textunderscore timerB0.c}{22}}
\@writefile{toc}{\contentsline {subsubsection}{\numberline {7.6.3}Messung der Blinkzeit mit dem Oszilloskop}{23}}
\@writefile{lof}{\contentsline {figure}{\numberline {12}{\ignorespaces Display blinkt mit f=4Hz. Also zwei Mal in der Sekunde.\relax }}{23}}
\@writefile{toc}{\contentsline {section}{\numberline {8}Ansteuerung des Lenkservos am Crazy Car}{24}}
\newlabel{lab4:sec:black}{{8}{24}}
\@writefile{lof}{\contentsline {figure}{\numberline {13}{\ignorespaces Die Stellung des Servomotors ist abh\IeC {\"a}ngig vom Duty Cycle. Nach 1-2ms High folgt 20ms Low. Quelle: EC Laborpr\IeC {\"a}sentation, 4. PWM \IeC {\textendash } Ansteuerung der Aktorik\relax }}{24}}
\newlabel{lab4:pic:black}{{13}{24}}
\@writefile{toc}{\contentsline {subsection}{\numberline {8.1}PWM Signal f\IeC {\"u}r Lenkung durch TimerA}{24}}
\@writefile{toc}{\contentsline {subsubsection}{\numberline {8.1.1}PWM durch Up Mode}{25}}
\@writefile{lof}{\contentsline {figure}{\numberline {14}{\ignorespaces Timer A Up-Mode, Quelle: MSP430 Family Guide, Fig 17-12\relax }}{25}}
\newlabel{lab4:pic:brown}{{14}{25}}
\@writefile{toc}{\contentsline {subsubsection}{\numberline {8.1.2}Berechnung}{26}}
\newlabel{lab4:sec:orange}{{8.1.2}{26}}
\@writefile{toc}{\contentsline {subsubsection}{\numberline {8.1.3}Umsetzung im Code Composer}{26}}
\@writefile{lol}{\contentsline {lstlisting}{CFiles/lab4/hal\textunderscore timerA1.h}{26}}
\@writefile{lol}{\contentsline {lstlisting}{CFiles/lab4/hal\textunderscore timerA1.c}{26}}
\@writefile{toc}{\contentsline {subsection}{\numberline {8.2}Zusammenfassung der Lenkeigenschaften am Crazy Car}{27}}
\@writefile{lof}{\contentsline {figure}{\numberline {15}{\ignorespaces Lenkprinzip des Crazy Cars\relax }}{27}}
\@writefile{toc}{\contentsline {section}{\numberline {9}Der Fahrtenregler}{28}}
\@writefile{toc}{\contentsline {subsection}{\numberline {9.1}Initialisierung des Motors}{28}}
\@writefile{toc}{\contentsline {subsubsection}{\numberline {9.1.1}Konfiguration f\IeC {\"u}r PWM Modus}{28}}
\@writefile{lof}{\contentsline {figure}{\numberline {16}{\ignorespaces Die Impulsanzahl legt die einzelnen Punkte fest. Vorw\IeC {\"a}rtsfahren passiert dann z.B. bei $MinFPW < Pulsweite < MaxFPW$. Quelle: Labor Briefing \relax }}{29}}
\newlabel{lab4:pic:red}{{16}{29}}
\@writefile{toc}{\contentsline {subsubsection}{\numberline {9.1.2}Umsetzung im Code Composer}{30}}
\@writefile{lol}{\contentsline {lstlisting}{CFiles/lab4/driver\textunderscore aktorik.h}{30}}
\@writefile{lol}{\contentsline {lstlisting}{CFiles/lab4/driver\textunderscore aktorik.c}{30}}
\@writefile{toc}{\contentsline {section}{\numberline {10}LCD Display}{32}}
\@writefile{lof}{\contentsline {figure}{\numberline {17}{\ignorespaces Anschluss vom LCD Display an den MSP430. Das Display ist an die UCB1 angeschlossen. Dies ist eine USCI Schnittstelle. Die Daten werden mit SPI \IeC {\"u}bertragen. Quelle: Crazy Car Datenblatt\relax }}{32}}
\newlabel{lab5:pic:black}{{17}{32}}
\@writefile{lol}{\contentsline {lstlisting}{CFiles/lab5/hal\textunderscore gpio.c}{32}}
\@writefile{toc}{\contentsline {subsection}{\numberline {10.1}SPI}{33}}
\@writefile{lof}{\contentsline {figure}{\numberline {18}{\ignorespaces Aufbau SPI, Quelle: Wikipedia\relax }}{33}}
\@writefile{toc}{\contentsline {subsection}{\numberline {10.2}USCI}{34}}
\@writefile{lot}{\contentsline {table}{\numberline {2}{\ignorespaces Obwohl USCI\_Ax asynchron ist, unterst\IeC {\"u}tzt es das synchrone Protokoll SPI.\relax }}{34}}
\@writefile{toc}{\contentsline {subsubsection}{\numberline {10.2.1}Daten\IeC {\"u}bertragung mit USCI}{34}}
\@writefile{toc}{\contentsline {subsection}{\numberline {10.3}Kommunikation mit dem Display}{34}}
\@writefile{lof}{\contentsline {figure}{\numberline {19}{\ignorespaces Vergleicht man diese Abbildung mit Abbildung \ref  {lab5:pic:black}, sieht man dass die ben\IeC {\"o}tigten 5 Leitungen den UCB1 Leitungen P8.1, P8.4 bis P8.6 sowie dem General I/0 Pin P8.7 entsprechen. Das Backlight P8.0 ist hier nicht eingezeichnet.\relax }}{34}}
\newlabel{lab5:pic:red}{{19}{34}}
\@writefile{toc}{\contentsline {subsubsection}{\numberline {10.3.1}Daten\IeC {\"u}bertragung mit USCI im Codecomposer}{35}}
\@writefile{toc}{\contentsline {subsubsection}{\numberline {10.3.2}Initialisieren der USCI Schnittstelle}{35}}
\@writefile{lol}{\contentsline {lstlisting}{CFiles/lab5/usciB1\textendash init.c}{36}}
\@writefile{toc}{\contentsline {subsubsection}{\numberline {10.3.3}Das richtige Datenformat}{36}}
\@writefile{lof}{\contentsline {figure}{\numberline {20}{\ignorespaces Das Display ist in Zeilen, PAGES organisiert. Da mit USCI 8Bit auf einmal \IeC {\"u}bertragen werden k\IeC {\"o}nnen, sind diese 8Bit weiter in zwei Halfbytes unterteilt.\relax }}{36}}
\@writefile{lof}{\contentsline {figure}{\numberline {21}{\ignorespaces \IeC {\"U}ber Command Codes wird dem Display u.a. mitgeteilt wie es mit den Daten zu arbeiten hat.\relax }}{37}}
\newlabel{lab5:pic:brown}{{21}{37}}
\@writefile{toc}{\contentsline {subsubsection}{\numberline {10.3.4}Cursorposition setzen}{37}}
\@writefile{lol}{\contentsline {lstlisting}{\numberline {7}\IeC {\"U}ber eine SetPosition Funktion wird der Cursor im Programm gesetzt.}{37}}
\@writefile{toc}{\contentsline {subsubsection}{\numberline {10.3.5}Auf das Display Schreiben}{38}}
\@writefile{lof}{\contentsline {figure}{\numberline {22}{\ignorespaces Aufbau der Zahl 8 am Display.\relax }}{38}}
\newlabel{lab5:pic:orange}{{22}{38}}
\@writefile{toc}{\contentsline {subsubsection}{\numberline {10.3.6}Exemplarische Messung einer Daten\IeC {\"u}bertragung}{39}}
\@writefile{lof}{\contentsline {figure}{\numberline {23}{\ignorespaces Daten\IeC {\"u}bertragung an das LCD Display. Gelb: MOSI, Gr\IeC {\"u}n: CLK, Blau: CS. Man sieht dass CS w\IeC {\"a}hrend der \IeC {\"U}bertragung LOW ist, d.h. das Display selektiert ist.\relax }}{39}}
\@writefile{lof}{\contentsline {figure}{\numberline {24}{\ignorespaces gelb: MOSI, gr\IeC {\"u}n: CLK, blau: CS\relax }}{40}}
\@writefile{toc}{\contentsline {section}{\numberline {11}ADC}{41}}
\newlabel{lab7:sec:1}{{11}{41}}
\@writefile{lof}{\contentsline {figure}{\numberline {25}{\ignorespaces Um sich ein Bild von der Situation am Crazycar zu machen hier der Ausschnitt von den Sensoreing\IeC {\"a}ngen. Quelle: Crazy Car Schaltplan\relax }}{41}}
\@writefile{toc}{\contentsline {subsection}{\numberline {11.1}Umsetzung am Crazycar}{42}}
\@writefile{lof}{\contentsline {figure}{\numberline {26}{\ignorespaces Der ADC12A arbeitet mit einer sample time, gefolgt von einer 13 Takte langen convert time, die der Hold-time aus der Einf\IeC {\"u}hrung entspricht\relax }}{42}}
\newlabel{lab7:pic:black}{{26}{42}}
\@writefile{lof}{\contentsline {figure}{\numberline {27}{\ignorespaces Der Inhalt des ADC12MEM Registers ist abh\IeC {\"a}ngig von ADC12DF und ADCRES\relax }}{42}}
\@writefile{lof}{\contentsline {figure}{\numberline {28}{\ignorespaces Zuletzt kennt der ADC noch mehrere modes. Da er mehrere Pins in einer Schleife sukzessive einlesen soll wurde als ADC12CONSEQx Wert 11 gew\IeC {\"a}hlt.\relax }}{43}}
\@writefile{toc}{\contentsline {subsubsection}{\numberline {11.1.1}Konfiguration des ADC}{43}}
\newlabel{lab7:sec:black}{{11.1.1}{43}}
\@writefile{lol}{\contentsline {lstlisting}{CFiles/lab7/hal\textunderscore adc\textunderscore commented.c}{43}}
\@writefile{toc}{\contentsline {subsubsection}{\numberline {11.1.2}Starten des ADCs}{45}}
\@writefile{toc}{\contentsline {section}{\numberline {12}DMA controller}{46}}
\@writefile{toc}{\contentsline {subsection}{\numberline {12.1}Transferarten}{46}}
\@writefile{lof}{\contentsline {figure}{\numberline {29}{\ignorespaces Der verwendete ausdruck DMAEN bedeutet DMA Enable. Das bedeutet dass der DMA unter umst\IeC {\"a}nden ausgeschaltet wird, Quelle: Labor Briefing\relax }}{46}}
\@writefile{toc}{\contentsline {subsection}{\numberline {12.2}Verwendung am Crazy Car}{47}}
\@writefile{lol}{\contentsline {lstlisting}{\numberline {8}Der DMA controller schreibt den Wert von der Source Adress direkt in die Destination Adress.}{47}}
\newlabel{lab8:lst:1}{{12.2}{47}}
\@writefile{toc}{\contentsline {section}{\numberline {13}Sharp Abstandssensoren}{48}}
\@writefile{toc}{\contentsline {subsection}{\numberline {13.1}Funktionsweise}{48}}
\newlabel{lab10:sec:black}{{13.1}{48}}
\@writefile{lot}{\contentsline {table}{\numberline {3}{\ignorespaces Zusammenfassung aus dem Datenbl\IeC {\"a}ttern, mit Seitensensoren (1) Frontsensor (2)\relax }}{48}}
\@writefile{lof}{\contentsline {figure}{\numberline {30}{\ignorespaces Ausgangskurve der Sensoren. Quelle: GP2Y0A Datenblatt\relax }}{49}}
\@writefile{toc}{\contentsline {subsection}{\numberline {13.2}Messung}{49}}
\@writefile{toc}{\contentsline {subsubsection}{\numberline {13.2.1}Grafische Darstellung der Ausgangsspannung}{50}}
\@writefile{lof}{\contentsline {figure}{\numberline {31}{\ignorespaces Abh\IeC {\"a}ngigkeit von Ausgangsspannung und Distanz beim Frontsensor\relax }}{50}}
\@writefile{lof}{\contentsline {figure}{\numberline {32}{\ignorespaces Abh\IeC {\"a}ngigkeit von Ausgangsspannung und Distanz beim rechten Sensor\relax }}{50}}
\@writefile{toc}{\contentsline {subsubsection}{\numberline {13.2.2}Messwerte Tabellen}{51}}
\newlabel{lab10:sec:brown}{{13.2.2}{51}}
\@writefile{lot}{\contentsline {table}{\numberline {4}{\ignorespaces Messwerte des Frontsensors\relax }}{51}}
\@writefile{lot}{\contentsline {table}{\numberline {5}{\ignorespaces Messwerte des rechten Abstandsensors\relax }}{52}}
\@writefile{toc}{\contentsline {subsection}{\numberline {13.3}Auswertung der Distanz am Crazy Car}{52}}
\@writefile{toc}{\contentsline {section}{\numberline {14}Algorithmus}{53}}
\@writefile{toc}{\contentsline {subsection}{\numberline {14.1}PID Regler}{53}}
\@writefile{toc}{\contentsline {subsubsection}{\numberline {14.1.1}controller\_pid.h}{53}}
\@writefile{lol}{\contentsline {lstlisting}{CFiles/algorithmus/controller\textunderscore pid.h}{53}}
\@writefile{toc}{\contentsline {subsubsection}{\numberline {14.1.2}controller\_pid.c}{54}}
\@writefile{lol}{\contentsline {lstlisting}{CFiles/algorithmus/controller\textunderscore pid.c}{54}}
\@writefile{toc}{\contentsline {subsection}{\numberline {14.2}Kurvenerkennung}{56}}
\@writefile{toc}{\contentsline {subsubsection}{\numberline {14.2.1}jump\_detection.h}{56}}
\@writefile{lol}{\contentsline {lstlisting}{CFiles/algorithmus/jump\textunderscore detection.h}{56}}
\@writefile{toc}{\contentsline {subsubsection}{\numberline {14.2.2}jump\_detection.c}{56}}
\@writefile{lol}{\contentsline {lstlisting}{CFiles/algorithmus/jump\textunderscore detection.c}{56}}
\@writefile{toc}{\contentsline {subsection}{\numberline {14.3}Statemachine}{58}}
\@writefile{toc}{\contentsline {subsubsection}{\numberline {14.3.1}Failtimer}{58}}
\@writefile{toc}{\contentsline {subsubsection}{\numberline {14.3.2}statemachine\_brake.h}{58}}
\@writefile{lol}{\contentsline {lstlisting}{CFiles/algorithmus/statemachine\textunderscore brake.h}{58}}
\@writefile{toc}{\contentsline {subsubsection}{\numberline {14.3.3}statemachine\_brake.c}{59}}
\@writefile{lol}{\contentsline {lstlisting}{CFiles/algorithmus/statemachine\textunderscore brake.c}{59}}
\@writefile{toc}{\contentsline {subsubsection}{\numberline {14.3.4}state\_methods.h}{71}}
\@writefile{lol}{\contentsline {lstlisting}{CFiles/algorithmus/state\textunderscore methods.h}{71}}
\@writefile{toc}{\contentsline {subsubsection}{\numberline {14.3.5}state\_methods.c}{72}}
\@writefile{lol}{\contentsline {lstlisting}{CFiles/algorithmus/state\textunderscore methods.c}{72}}
\@writefile{toc}{\contentsline {subsection}{\numberline {14.4}Entprellen}{72}}
\newlabel{alg:sec:black}{{14.4}{72}}
\@writefile{toc}{\contentsline {subsubsection}{\numberline {14.4.1}debounce.h}{72}}
\@writefile{lol}{\contentsline {lstlisting}{CFiles/algorithmus/debounce.h}{72}}
\@writefile{toc}{\contentsline {subsubsection}{\numberline {14.4.2}debounce.c}{73}}
\@writefile{lol}{\contentsline {lstlisting}{CFiles/algorithmus/debounce.c}{73}}
\@writefile{toc}{\contentsline {section}{\numberline {15}Verwendete Logikzeichen}{75}}
\@writefile{toc}{\contentsline {section}{\numberline {16}Richtigkeitsbeglaubigung}{76}}
